\relax 
\bibcite{fpn}{0}
\bibcite{ats}{0}
\bibcite{srim}{0}
\bibcite{multiplication}{0}
\bibcite{magboltz}{0}
\@setckpt{bibliografia}{
\setcounter{page}{4}
\setcounter{equation}{4}
\setcounter{enumi}{2}
\setcounter{enumii}{0}
\setcounter{enumiii}{0}
\setcounter{enumiv}{0}
\setcounter{footnote}{0}
\setcounter{mpfootnote}{0}
}
