\relax 
\@writefile{toc}{\contentsline {chapter}{\numberline {3}Results for $\bf  {\mathrm  {CF_4}}$}{12}}
\@writefile{lof}{\addvspace {10\p@ }}
\@writefile{lot}{\addvspace {10\p@ }}
\newlabel{chapCF4}{{3}{12}}
\@writefile{lot}{\contentsline {table}{\numberline {3.1}{\ignorespaces Energy and charge state of the ion beams whose energy loss has been measured in $\mathrm  {CF_4}$.\relax }}{12}}
\newlabel{chargeStateCF4}{{3.1}{12}}
\@writefile{lot}{\contentsline {table}{\numberline {3.2}{\ignorespaces Check of the stability of the system for the ions in $\mathrm  {CF_4}$.\relax }}{12}}
\newlabel{stabilityCF4}{{3.2}{12}}
\@writefile{lot}{\contentsline {table}{\numberline {3.3}{\ignorespaces Comparison of the calibration factor computed using the value of energy obtained from TRIM and LISE for the ions in $\mathrm  {CF_4}$.\relax }}{12}}
\newlabel{calibComparisonCF4}{{3.3}{12}}
\@writefile{lot}{\contentsline {table}{\numberline {3.4}{\ignorespaces Pressure and drift field values for the $\mathrm  {CF_4}$ for each measurement. The value of the temperature has been fixed at $T = 20^\circ $ for every MAGBOLTZ calculation.\relax }}{13}}
\newlabel{driftCF4}{{3.4}{13}}
\@writefile{lot}{\contentsline {table}{\numberline {3.5}{\ignorespaces Parameters and results for $\alpha _T$ $(\mathrm  {cm^{-1}})$ and $\alpha _{ATT}$ $(\mathrm  {cm^{-1}})$ with MAGBOLTZ calculation.\relax }}{13}}
\newlabel{magboltzCF4}{{3.5}{13}}
\@writefile{lot}{\contentsline {table}{\numberline {3.6}{\ignorespaces Check of the relation (\ref  {relation}) for $\mathrm  {CF_4}$. Reference values used for the calculation are highlighted. Calibration factors are obtained with normalization of the integral of the simulated profile with TRIM and the experimental one.\relax }}{13}}
\newlabel{summaryTableCF4}{{3.6}{13}}
\@writefile{lot}{\contentsline {table}{\numberline {3.7}{\ignorespaces Comparison of the energy calculation for $\mathrm  {CF_4}$.\relax }}{13}}
\newlabel{energiesCF4}{{3.7}{13}}
\newlabel{energyLost}{{3.1}{13}}
\newlabel{excess_defect}{{3.2}{13}}
\citation{chargeState}
\citation{chargeState}
\citation{chargeState}
\citation{chargeState}
\citation{chargeState}
\citation{chargeState}
\citation{chargeState}
\citation{chargeState}
\citation{chargeState}
\citation{chargeState}
\citation{chargeState}
\citation{chargeState}
\newlabel{errorEnergy}{{3.3}{14}}
\newlabel{run144_TRIM}{{3.1a}{15}}
\newlabel{sub@run144_TRIM}{{(a)}{a}}
\newlabel{run144_LISE}{{3.1b}{15}}
\newlabel{sub@run144_LISE}{{(b)}{b}}
\newlabel{run144_charge_state}{{3.1c}{15}}
\newlabel{sub@run144_charge_state}{{(c)}{c}}
\@writefile{lof}{\contentsline {figure}{\numberline {3.1}{\ignorespaces $\bf  { ^{6}\mathrm  {Li}}$, $\bf  {E = 9} $ MeV, $\mathrm  {CF_4}$, $\bf  {P=69.6}$ mbar\relax }}{15}}
\newlabel{run144}{{3.1}{15}}
\newlabel{run192_TRIM}{{3.2a}{16}}
\newlabel{sub@run192_TRIM}{{(a)}{a}}
\newlabel{run192_LISE}{{3.2b}{16}}
\newlabel{sub@run192_LISE}{{(b)}{b}}
\newlabel{run192_scaling}{{3.2c}{16}}
\newlabel{sub@run192_scaling}{{(c)}{c}}
\newlabel{run192_charge_state}{{3.2d}{16}}
\newlabel{sub@run192_charge_state}{{(d)}{d}}
\@writefile{lof}{\contentsline {figure}{\numberline {3.2}{\ignorespaces $\bf  { ^{12}\mathrm  {C}}$, $\bf  {E = 36} $ MeV, $\mathrm  {CF_4}$, $\bf  {P=140}$ mbar\relax }}{16}}
\newlabel{run192}{{3.2}{16}}
\newlabel{run257_TRIM}{{3.3a}{17}}
\newlabel{sub@run257_TRIM}{{(a)}{a}}
\newlabel{run257_LISE}{{3.3b}{17}}
\newlabel{sub@run257_LISE}{{(b)}{b}}
\newlabel{run257_scaling}{{3.3c}{17}}
\newlabel{sub@run257_scaling}{{(c)}{c}}
\newlabel{run257_charge_state}{{3.3d}{17}}
\newlabel{sub@run257_charge_state}{{(d)}{d}}
\@writefile{lof}{\contentsline {figure}{\numberline {3.3}{\ignorespaces $\bf  { ^{14}\mathrm  {N}}$, $\bf  {E = 42} $ MeV, $\mathrm  {CF_4}$, $\bf  {P=141}$ mbar\relax }}{17}}
\newlabel{run257}{{3.3}{17}}
\newlabel{run182_TRIM}{{3.4a}{18}}
\newlabel{sub@run182_TRIM}{{(a)}{a}}
\newlabel{run182_LISE}{{3.4b}{18}}
\newlabel{sub@run182_LISE}{{(b)}{b}}
\newlabel{run182_scaling}{{3.4c}{18}}
\newlabel{sub@run182_scaling}{{(c)}{c}}
\newlabel{run182_charge_state}{{3.4d}{18}}
\newlabel{sub@run182_charge_state}{{(d)}{d}}
\@writefile{lof}{\contentsline {figure}{\numberline {3.4}{\ignorespaces $\bf  { ^{16}\mathrm  {O}}$, $\bf  {E = 45} $ MeV, $\mathrm  {CF_4}$, $\bf  {P=107.4}$ mbar\relax }}{18}}
\newlabel{run182}{{3.4}{18}}
\newlabel{run262_TRIM}{{3.5a}{19}}
\newlabel{sub@run262_TRIM}{{(a)}{a}}
\newlabel{run262_LISE}{{3.5b}{19}}
\newlabel{sub@run262_LISE}{{(b)}{b}}
\newlabel{run262_scaling}{{3.5c}{19}}
\newlabel{sub@run262_scaling}{{(c)}{c}}
\newlabel{run262_charge_state}{{3.5d}{19}}
\newlabel{sub@run262_charge_state}{{(d)}{d}}
\@writefile{lof}{\contentsline {figure}{\numberline {3.5}{\ignorespaces $\bf  { ^{27}\mathrm  {Al}}$, $\bf  {E = 75} $ MeV, $\mathrm  {CF_4}$, $\bf  {P=101}$ mbar\relax }}{19}}
\newlabel{run262}{{3.5}{19}}
\newlabel{run284_TRIM}{{3.6a}{20}}
\newlabel{sub@run284_TRIM}{{(a)}{a}}
\newlabel{run284_LISE}{{3.6b}{20}}
\newlabel{sub@run284_LISE}{{(b)}{b}}
\newlabel{run284_scaling}{{3.6c}{20}}
\newlabel{sub@run284_scaling}{{(c)}{c}}
\newlabel{run284_charge_state}{{3.6d}{20}}
\newlabel{sub@run284_charge_state}{{(d)}{d}}
\@writefile{lof}{\contentsline {figure}{\numberline {3.6}{\ignorespaces $\bf  { ^{50}\mathrm  {Ti}}$, $\bf  {E = 142} $ MeV, $\mathrm  {CF_4}$, $\bf  {P=90}$ mbar\relax }}{20}}
\newlabel{run284}{{3.6}{20}}
\@setckpt{reportCF4/reportCF4}{
\setcounter{page}{21}
\setcounter{equation}{3}
\setcounter{enumi}{2}
\setcounter{enumii}{0}
\setcounter{enumiii}{0}
\setcounter{enumiv}{0}
\setcounter{footnote}{0}
\setcounter{mpfootnote}{0}
\setcounter{part}{0}
\setcounter{chapter}{3}
\setcounter{section}{0}
\setcounter{subsection}{0}
\setcounter{subsubsection}{0}
\setcounter{paragraph}{0}
\setcounter{subparagraph}{0}
\setcounter{figure}{6}
\setcounter{table}{7}
\setcounter{parentequation}{0}
\setcounter{SC@C}{0}
\setcounter{ContinuedFloat}{0}
\setcounter{KVtest}{0}
\setcounter{subfigure}{0}
\setcounter{subfigure@save}{4}
\setcounter{lofdepth}{1}
\setcounter{subtable}{0}
\setcounter{subtable@save}{0}
\setcounter{lotdepth}{1}
}
