\relax 
\select@language{english}
\@writefile{toc}{\select@language{english}}
\@writefile{lof}{\select@language{english}}
\@writefile{lot}{\select@language{english}}
\@input{common/common.aux}
\@input{reportCF4/reportCF4.aux}
\@input{reportIC4H10/reportIC4H10.aux}
\@input{reportP10/reportP10.aux}
\citation{fpn}
\citation{ats}
\@writefile{toc}{\contentsline {chapter}{Summary}{35}}
\@input{bibliografia.aux}
