\relax 
\bibcite{fpn}{1}
\bibcite{ats}{2}
\bibcite{srim}{3}
\bibcite{lise}{4}
\bibcite{knoll}{5}
\bibcite{multiplication}{6}
\bibcite{magboltz}{7}
\bibcite{chargeState}{8}
\@setckpt{bibliografia}{
\setcounter{page}{37}
\setcounter{equation}{0}
\setcounter{enumi}{2}
\setcounter{enumii}{0}
\setcounter{enumiii}{0}
\setcounter{enumiv}{8}
\setcounter{footnote}{0}
\setcounter{mpfootnote}{0}
\setcounter{part}{0}
\setcounter{chapter}{5}
\setcounter{section}{0}
\setcounter{subsection}{0}
\setcounter{subsubsection}{0}
\setcounter{paragraph}{0}
\setcounter{subparagraph}{0}
\setcounter{figure}{5}
\setcounter{table}{5}
\setcounter{parentequation}{0}
\setcounter{SC@C}{0}
\setcounter{ContinuedFloat}{0}
\setcounter{KVtest}{0}
\setcounter{subfigure}{0}
\setcounter{subfigure@save}{4}
\setcounter{lofdepth}{1}
\setcounter{subtable}{0}
\setcounter{subtable@save}{0}
\setcounter{lotdepth}{1}
}
