\relax 
\citation{chargeState}
\citation{chargeState}
\citation{chargeState}
\citation{chargeState}
\citation{chargeState}
\citation{chargeState}
\citation{chargeState}
\citation{chargeState}
\citation{chargeState}
\citation{chargeState}
\@writefile{toc}{\contentsline {chapter}{\numberline {4}Results for $\bf  {\mathrm  {iC_4H_{10}}}$}{21}}
\@writefile{lof}{\addvspace {10\p@ }}
\@writefile{lot}{\addvspace {10\p@ }}
\@writefile{lot}{\contentsline {table}{\numberline {4.1}{\ignorespaces Energy and charge state of the ion beams whose energy loss has been measured in $\mathrm  {iC_4H_{10}}$.\relax }}{21}}
\newlabel{chargeStateIC4H10}{{4.1}{21}}
\@writefile{lot}{\contentsline {table}{\numberline {4.2}{\ignorespaces Check of the stability of the system for the ions in $\mathrm  {iC_4H_{10}}$.\relax }}{21}}
\newlabel{stabilityIC4H10}{{4.2}{21}}
\@writefile{lot}{\contentsline {table}{\numberline {4.3}{\ignorespaces Comparison of the calibration factor computed using the value of energy obtained from TRIM and LISE for the ions in $\mathrm  {iC_4H_{10}}$.\relax }}{21}}
\newlabel{calibComparisonIC4H10}{{4.3}{21}}
\@writefile{lot}{\contentsline {table}{\numberline {4.4}{\ignorespaces Pressure and drift field values for the $\mathrm  {iC_4H_{10}}$ for each measurement. The value of the temperature has been fixed at $T = 20^\circ $ for every MAGBOLTZ calculation.\relax }}{22}}
\newlabel{driftIC4H10}{{4.4}{22}}
\@writefile{lot}{\contentsline {table}{\numberline {4.5}{\ignorespaces Check of the relation (\ref  {relation}) for $\mathrm  {iC_4H_{10}}$. Reference values used for the calculation are highlighted. Calibration factors are obtained with normalization of the integral of the simulated and the experimental profiles.\relax }}{22}}
\newlabel{summaryTableIC4H10}{{4.5}{22}}
\@writefile{lot}{\contentsline {table}{\numberline {4.6}{\ignorespaces Comparison of the energy calculation for $\mathrm  {iC_4H_{10}}$.\relax }}{22}}
\newlabel{energiesIC4H10}{{4.6}{22}}
\newlabel{run147_TRIM}{{4.1a}{23}}
\newlabel{sub@run147_TRIM}{{(a)}{a}}
\newlabel{run147_LISE}{{4.1b}{23}}
\newlabel{sub@run147_LISE}{{(b)}{b}}
\newlabel{run147_charge_state}{{4.1c}{23}}
\newlabel{sub@run147_charge_state}{{(c)}{c}}
\@writefile{lof}{\contentsline {figure}{\numberline {4.1}{\ignorespaces $\bf  { ^{6}\mathrm  {Li}}$, $\bf  {E = 9} $ MeV, $\mathrm  {iC_4H_{10}}$, $\bf  {P=55}$ mbar\relax }}{23}}
\newlabel{run147}{{4.1}{23}}
\newlabel{run246_TRIM}{{4.2a}{24}}
\newlabel{sub@run246_TRIM}{{(a)}{a}}
\newlabel{run246_LISE}{{4.2b}{24}}
\newlabel{sub@run246_LISE}{{(b)}{b}}
\newlabel{run246_scaling}{{4.2c}{24}}
\newlabel{sub@run246_scaling}{{(c)}{c}}
\newlabel{run246_charge_state}{{4.2d}{24}}
\newlabel{sub@run246_charge_state}{{(d)}{d}}
\@writefile{lof}{\contentsline {figure}{\numberline {4.2}{\ignorespaces $\bf  { ^{14}\mathrm  {N}}$, $\bf  {E = 42} $ MeV, $\mathrm  {iC_4H_{10}}$, $\bf  {P=152}$ mbar\relax }}{24}}
\newlabel{run246}{{4.2}{24}}
\newlabel{run157_TRIM}{{4.3a}{25}}
\newlabel{sub@run157_TRIM}{{(a)}{a}}
\newlabel{run157_LISE}{{4.3b}{25}}
\newlabel{sub@run157_LISE}{{(b)}{b}}
\newlabel{run157_scaling}{{4.3c}{25}}
\newlabel{sub@run157_scaling}{{(c)}{c}}
\newlabel{run157_charge_state}{{4.3d}{25}}
\newlabel{sub@run157_charge_state}{{(d)}{d}}
\@writefile{lof}{\contentsline {figure}{\numberline {4.3}{\ignorespaces $\bf  { ^{16}\mathrm  {O}}$, $\bf  {E = 45} $ MeV, $\mathrm  {iC_4H_{10}}$, $\bf  {P=100}$ mbar\relax }}{25}}
\newlabel{run157}{{4.3}{25}}
\newlabel{run270_TRIM}{{4.4a}{26}}
\newlabel{sub@run270_TRIM}{{(a)}{a}}
\newlabel{run270_LISE}{{4.4b}{26}}
\newlabel{sub@run270_LISE}{{(b)}{b}}
\newlabel{run270_scaling}{{4.4c}{26}}
\newlabel{sub@run270_scaling}{{(c)}{c}}
\newlabel{run270_charge_state}{{4.4d}{26}}
\newlabel{sub@run270_charge_state}{{(d)}{d}}
\@writefile{lof}{\contentsline {figure}{\numberline {4.4}{\ignorespaces $\bf  { ^{27}\mathrm  {Al}}$, $\bf  {E = 75} $ MeV, $\mathrm  {iC_4H_{10}}$, $\bf  {P=76}$ mbar\relax }}{26}}
\newlabel{run270}{{4.4}{26}}
\newlabel{run281_TRIM}{{4.5a}{27}}
\newlabel{sub@run281_TRIM}{{(a)}{a}}
\newlabel{run281_LISE}{{4.5b}{27}}
\newlabel{sub@run281_LISE}{{(b)}{b}}
\newlabel{run281_scaling}{{4.5c}{27}}
\newlabel{sub@run281_scaling}{{(c)}{c}}
\newlabel{run281_charge_state}{{4.5d}{27}}
\newlabel{sub@run281_charge_state}{{(d)}{d}}
\@writefile{lof}{\contentsline {figure}{\numberline {4.5}{\ignorespaces $\bf  { ^{50}\mathrm  {Ti}}$, $\bf  {E = 142} $ MeV, $\mathrm  {iC_4H_{10}}$, $\bf  {P=79.6}$ mbar\relax }}{27}}
\newlabel{run281}{{4.5}{27}}
\@setckpt{reportIC4H10/reportIC4H10}{
\setcounter{page}{28}
\setcounter{equation}{0}
\setcounter{enumi}{2}
\setcounter{enumii}{0}
\setcounter{enumiii}{0}
\setcounter{enumiv}{0}
\setcounter{footnote}{0}
\setcounter{mpfootnote}{0}
\setcounter{part}{0}
\setcounter{chapter}{4}
\setcounter{section}{0}
\setcounter{subsection}{0}
\setcounter{subsubsection}{0}
\setcounter{paragraph}{0}
\setcounter{subparagraph}{0}
\setcounter{figure}{5}
\setcounter{table}{6}
\setcounter{parentequation}{0}
\setcounter{SC@C}{0}
\setcounter{ContinuedFloat}{0}
\setcounter{KVtest}{0}
\setcounter{subfigure}{0}
\setcounter{subfigure@save}{4}
\setcounter{lofdepth}{1}
\setcounter{subtable}{0}
\setcounter{subtable@save}{0}
\setcounter{lotdepth}{1}
}
