\relax 
\citation{chargeState}
\citation{chargeState}
\citation{chargeState}
\citation{chargeState}
\citation{chargeState}
\citation{chargeState}
\citation{chargeState}
\citation{chargeState}
\citation{chargeState}
\citation{chargeState}
\@writefile{toc}{\contentsline {chapter}{\numberline {5}Results for $\bf  {\mathrm  {Ar/CH_4}\ (90/10)}$ mixture}{28}}
\@writefile{lof}{\addvspace {10\p@ }}
\@writefile{lot}{\addvspace {10\p@ }}
\@writefile{lot}{\contentsline {table}{\numberline {5.1}{\ignorespaces Energy and charge state of the ion beams whose energy loss has been measured in P10.\relax }}{28}}
\newlabel{chargeStateP10}{{5.1}{28}}
\@writefile{lot}{\contentsline {table}{\numberline {5.2}{\ignorespaces Check of the stability of the system for the ions in $\mathrm  {P10}$.\relax }}{28}}
\newlabel{stabilityP10}{{5.2}{28}}
\@writefile{lot}{\contentsline {table}{\numberline {5.3}{\ignorespaces Comparison of the calibration factor computed using the value of energy obtained from TRIM and LISE for the ions in $\mathrm  {P_{10}}$.\relax }}{28}}
\newlabel{calibComparisonP10}{{5.3}{28}}
\@writefile{lot}{\contentsline {table}{\numberline {5.4}{\ignorespaces Check of the relation (\ref  {relation}) for P10. Reference values used for the calculation are highlighted. Calibration factors are obtained with normalization of the integral of the simulated and the experimental profiles.\relax }}{29}}
\newlabel{summaryTableP10}{{5.4}{29}}
\@writefile{lot}{\contentsline {table}{\numberline {5.5}{\ignorespaces Comparison of the energy calculation for P10.\relax }}{29}}
\newlabel{energiesP10}{{5.5}{29}}
\newlabel{run131_TRIM}{{5.1a}{30}}
\newlabel{sub@run131_TRIM}{{(a)}{a}}
\newlabel{run131_LISE}{{5.1b}{30}}
\newlabel{sub@run131_LISE}{{(b)}{b}}
\newlabel{run131_charge_state}{{5.1c}{30}}
\newlabel{sub@run131_charge_state}{{(c)}{c}}
\@writefile{lof}{\contentsline {figure}{\numberline {5.1}{\ignorespaces $\bf  { ^{6}\mathrm  {Li}}$, $\bf  {E = 9} $ MeV, $\mathrm  {P10}$, $\bf  {P=180.5}$ mbar\relax }}{30}}
\newlabel{run131}{{5.1}{30}}
\newlabel{run217_TRIM}{{5.2a}{31}}
\newlabel{sub@run217_TRIM}{{(a)}{a}}
\newlabel{run217_LISE}{{5.2b}{31}}
\newlabel{sub@run217_LISE}{{(b)}{b}}
\newlabel{run217_scaling}{{5.2c}{31}}
\newlabel{sub@run217_scaling}{{(c)}{c}}
\newlabel{run217_charge_state}{{5.2d}{31}}
\newlabel{sub@run217_charge_state}{{(d)}{d}}
\@writefile{lof}{\contentsline {figure}{\numberline {5.2}{\ignorespaces $\bf  { ^{11}\mathrm  {B}}$, $\bf  {E = 33} $ MeV, $\mathrm  {P10}$, $\bf  {P=440}$ mbar\relax }}{31}}
\newlabel{run217}{{5.2}{31}}
\newlabel{run253_TRIM}{{5.3a}{32}}
\newlabel{sub@run253_TRIM}{{(a)}{a}}
\newlabel{run253_LISE}{{5.3b}{32}}
\newlabel{sub@run253_LISE}{{(b)}{b}}
\newlabel{run253_scaling}{{5.3c}{32}}
\newlabel{sub@run253_scaling}{{(c)}{c}}
\newlabel{run253_charge_state}{{5.3d}{32}}
\newlabel{sub@run253_charge_state}{{(d)}{d}}
\@writefile{lof}{\contentsline {figure}{\numberline {5.3}{\ignorespaces $\bf  { ^{14}\mathrm  {N}}$, $\bf  {E = 42} $ MeV, $\mathrm  {P10}$, $\bf  {P=351}$ mbar\relax }}{32}}
\newlabel{run253}{{5.3}{32}}
\newlabel{run172_TRIM}{{5.4a}{33}}
\newlabel{sub@run172_TRIM}{{(a)}{a}}
\newlabel{run172_LISE}{{5.4b}{33}}
\newlabel{sub@run172_LISE}{{(b)}{b}}
\newlabel{run172_scaling}{{5.4c}{33}}
\newlabel{sub@run172_scaling}{{(c)}{c}}
\newlabel{run172_charge_state}{{5.4d}{33}}
\newlabel{sub@run172_charge_state}{{(d)}{d}}
\@writefile{lof}{\contentsline {figure}{\numberline {5.4}{\ignorespaces $\bf  { ^{16}\mathrm  {O}}$, $\bf  {E = 45} $ MeV, $\mathrm  {P10}$, $\bf  {P=301.8}$ mbar\relax }}{33}}
\newlabel{run172}{{5.4}{33}}
\newlabel{run288_TRIM}{{5.5a}{34}}
\newlabel{sub@run288_TRIM}{{(a)}{a}}
\newlabel{run288_LISE}{{5.5b}{34}}
\newlabel{sub@run288_LISE}{{(b)}{b}}
\newlabel{run288_scaling}{{5.5c}{34}}
\newlabel{sub@run288_scaling}{{(c)}{c}}
\newlabel{run288_charge_state}{{5.5d}{34}}
\newlabel{sub@run288_charge_state}{{(d)}{d}}
\@writefile{lof}{\contentsline {figure}{\numberline {5.5}{\ignorespaces $\bf  { ^{50}\mathrm  {Ti}}$, $\bf  {E = 142} $ MeV, $\mathrm  {P10}$, $\bf  {P=250}$ mbar\relax }}{34}}
\newlabel{run288}{{5.5}{34}}
\@setckpt{reportP10/reportP10}{
\setcounter{page}{35}
\setcounter{equation}{0}
\setcounter{enumi}{2}
\setcounter{enumii}{0}
\setcounter{enumiii}{0}
\setcounter{enumiv}{0}
\setcounter{footnote}{0}
\setcounter{mpfootnote}{0}
\setcounter{part}{0}
\setcounter{chapter}{5}
\setcounter{section}{0}
\setcounter{subsection}{0}
\setcounter{subsubsection}{0}
\setcounter{paragraph}{0}
\setcounter{subparagraph}{0}
\setcounter{figure}{5}
\setcounter{table}{5}
\setcounter{parentequation}{0}
\setcounter{SC@C}{0}
\setcounter{ContinuedFloat}{0}
\setcounter{KVtest}{0}
\setcounter{subfigure}{0}
\setcounter{subfigure@save}{4}
\setcounter{lofdepth}{1}
\setcounter{subtable}{0}
\setcounter{subtable@save}{0}
\setcounter{lotdepth}{1}
}
