\relax 
\citation{fpn}
\citation{fpn}
\citation{ats}
\@writefile{toc}{\contentsline {chapter}{\numberline {1}Digital Signal Processing}{3}}
\@writefile{lof}{\addvspace {10\p@ }}
\@writefile{lot}{\addvspace {10\p@ }}
\@writefile{toc}{\contentsline {section}{\numberline {1.1}Extraction of the amplitude of the physical signals}{3}}
\providecommand*\caption@xref[2]{\@setref\relax\@undefined{#1}}
\newlabel{fpnComp}{{1.1a}{3}}
\newlabel{sub@fpnComp}{{(a)}{a}}
\newlabel{linComp}{{1.1b}{3}}
\newlabel{sub@linComp}{{(b)}{b}}
\@writefile{lof}{\contentsline {figure}{\numberline {1.1}{\ignorespaces Digital signal processing of a typical physical signal.\relax }}{3}}
\newlabel{comp}{{1.1}{3}}
\@writefile{toc}{\contentsline {section}{\numberline {1.2}Pulser equalization of the amplitude of the physical signals}{4}}
\newlabel{pulserSpectrum}{{1.2a}{4}}
\newlabel{sub@pulserSpectrum}{{(a)}{a}}
\newlabel{pulserSpectrumFit}{{1.2b}{4}}
\newlabel{sub@pulserSpectrumFit}{{(b)}{b}}
\@writefile{lof}{\contentsline {figure}{\numberline {1.2}{\ignorespaces Pulser equalization.\relax }}{4}}
\newlabel{equalization}{{1.2}{4}}
\@writefile{toc}{\contentsline {chapter}{\numberline {2}Data Analysis}{5}}
\@writefile{lof}{\addvspace {10\p@ }}
\@writefile{lot}{\addvspace {10\p@ }}
\@writefile{toc}{\contentsline {section}{\numberline {2.1}Event Selection}{5}}
\newlabel{strano1}{{2.1a}{5}}
\newlabel{sub@strano1}{{(a)}{a}}
\newlabel{strano2}{{2.1b}{5}}
\newlabel{sub@strano2}{{(b)}{b}}
\newlabel{strano3}{{2.1c}{5}}
\newlabel{sub@strano3}{{(c)}{c}}
\newlabel{traccia}{{2.1d}{5}}
\newlabel{sub@traccia}{{(d)}{d}}
\@writefile{lof}{\contentsline {figure}{\numberline {2.1}{\ignorespaces Events rejected by the selection (\ref  {strano1}, \ref  {strano2}, \ref  {strano3}) and event corresponding to a ion penetrating into the gas and stopping inside the active volume (\ref  {traccia}).\relax }}{5}}
\@writefile{lof}{\contentsline {figure}{\numberline {2.2}{\ignorespaces Energy loss profile of a single ion obtained with a projection onto the $x$-axis of a track as the one represented in Fig.~\ref  {traccia}.\relax }}{6}}
\newlabel{profile}{{2.2}{6}}
\newlabel{caricaDistrib}{{2.3a}{6}}
\newlabel{sub@caricaDistrib}{{(a)}{a}}
\newlabel{rangeDistrib}{{2.3b}{6}}
\newlabel{sub@rangeDistrib}{{(b)}{b}}
\newlabel{npadsDistrib}{{2.3c}{6}}
\newlabel{sub@npadsDistrib}{{(c)}{c}}
\newlabel{profiloMedio}{{2.3d}{6}}
\newlabel{sub@profiloMedio}{{(d)}{d}}
\@writefile{lof}{\contentsline {figure}{\numberline {2.3}{\ignorespaces \relax }}{6}}
\newlabel{selezione}{{2.3}{6}}
\@writefile{toc}{\contentsline {section}{\numberline {2.2}Check of the stability of the system during a measurement}{6}}
\newlabel{checkStability}{{2.2}{6}}
\citation{srim}
\citation{lise}
\@writefile{lof}{\contentsline {figure}{\numberline {2.4}{\ignorespaces Energy loss distribution (in arbitrary units) at penetration depth $ x_i=57.2 $ mm.\relax }}{7}}
\newlabel{distrib50}{{2.4}{7}}
\newlabel{deltaX}{{2.1}{7}}
\newlabel{variationDef}{{2.2}{7}}
\@writefile{toc}{\contentsline {section}{\numberline {2.3}Simulation of the energy loss profile}{7}}
\@writefile{lof}{\contentsline {figure}{\numberline {2.5}{\ignorespaces Energy loss profile simulated with TRIM. Ion: $^6\mathrm  {Li}$, $E=9$ MeV. Gas: $\mathrm  {CF_4}$, $P=69.6$ mbar.\relax }}{7}}
\newlabel{SRIMprofile}{{2.5}{7}}
\citation{knoll}
\@writefile{lof}{\contentsline {figure}{\numberline {2.6}{\ignorespaces Energy loss profile computed by LISE++. Ion: $^6\mathrm  {Li}$, $E=9$ MeV. Gas: $\mathrm  {CF_4}$, $P=69.6$ mbar.\relax }}{8}}
\newlabel{LISEprofile_E}{{2.6}{8}}
\newlabel{csda}{{2.3}{8}}
\@writefile{lof}{\contentsline {figure}{\numberline {2.7}{\ignorespaces Energy loss profile as a function of distance obtained from LISE++. Ion: $^6\mathrm  {Li}$, $E=9$ MeV. Gas: $\mathrm  {CF_4}$, $P=69.6$ mbar.\relax }}{8}}
\newlabel{LISEprofile_X}{{2.7}{8}}
\@writefile{toc}{\contentsline {section}{\numberline {2.4}Effect of the thermal diffusion}{9}}
\newlabel{diffSec}{{2.4}{9}}
\@writefile{lof}{\contentsline {figure}{\numberline {2.8}{\ignorespaces \relax }}{9}}
\newlabel{img_trackZoom}{{2.8}{9}}
\newlabel{eq_s_write}{{2.5}{9}}
\newlabel{eq_delta_gauss}{{2.6}{9}}
\newlabel{eq_e_after_diff}{{2.7}{10}}
\newlabel{eq_diff_s_write}{{2.8}{10}}
\@writefile{lof}{\contentsline {figure}{\numberline {2.9}{\ignorespaces Comparison among the simulated TRIM profile before and after taking onto account the diffusion ($\sigma =$ 1.03 mm) for $^6\mathrm  {Li}$ @ $E=9$ MeV and $\mathrm  {CF_4}$ at $P = 69.6$ mbar and $T = 20~ ^\circ \mathrm  {C}$.\relax }}{10}}
\newlabel{img_diff_no_diff}{{2.9}{10}}
\@writefile{toc}{\contentsline {section}{\numberline {2.5}Energy calibration}{10}}
\newlabel{calibSec}{{2.5}{10}}
\@writefile{toc}{\contentsline {section}{\numberline {2.6}Linking the calibration factors to the electron multiplication factors}{10}}
\newlabel{linkMulti}{{2.6}{10}}
\newlabel{calibDef}{{2.9}{10}}
\newlabel{arbCharge}{{2.10}{10}}
\citation{multiplication}
\citation{magboltz}
\newlabel{relation}{{2.11}{11}}
\newlabel{newCalib}{{2.12}{11}}
\@writefile{toc}{\contentsline {section}{\numberline {2.7}Evaluation of the agreement among experimental and simulated profile}{11}}
\newlabel{quality}{{2.13}{11}}
\@setckpt{common/common}{
\setcounter{page}{12}
\setcounter{equation}{13}
\setcounter{enumi}{2}
\setcounter{enumii}{0}
\setcounter{enumiii}{0}
\setcounter{enumiv}{0}
\setcounter{footnote}{0}
\setcounter{mpfootnote}{0}
\setcounter{part}{0}
\setcounter{chapter}{2}
\setcounter{section}{7}
\setcounter{subsection}{0}
\setcounter{subsubsection}{0}
\setcounter{paragraph}{0}
\setcounter{subparagraph}{0}
\setcounter{figure}{9}
\setcounter{table}{0}
\setcounter{parentequation}{0}
\setcounter{SC@C}{0}
\setcounter{ContinuedFloat}{0}
\setcounter{KVtest}{0}
\setcounter{subfigure}{0}
\setcounter{subfigure@save}{4}
\setcounter{lofdepth}{1}
\setcounter{subtable}{0}
\setcounter{subtable@save}{0}
\setcounter{lotdepth}{1}
}
